{
  "albums" : {
    "href" : "https://api.spotify.com/v1/browse/new-releases?country=ES&offset=5&limit=10",
    "items" : [ {
      "album_type" : "album",
      "artists" : [ {
        "external_urls" : {
          "spotify" : "https://open.spotify.com/artist/2auC28zjQyVTsiZKNgPRGs"
        },
        "href" : "https://api.spotify.com/v1/artists/2auC28zjQyVTsiZKNgPRGs",
        "id" : "2auC28zjQyVTsiZKNgPRGs",
        "name" : "RM",
        "type" : "artist",
        "uri" : "spotify:artist:2auC28zjQyVTsiZKNgPRGs"
      } ],
      "available_markets" : [ ],
      "external_urls" : {
        "spotify" : "https://open.spotify.com/album/08HCdXZVN72S2vpIT9DKhU"
      },
      "href" : "https://api.spotify.com/v1/albums/08HCdXZVN72S2vpIT9DKhU",
      "id" : "08HCdXZVN72S2vpIT9DKhU",
      "images" : [ {
        "height" : 640,
        "url" : "https://i.scdn.co/image/ab67616d0000b27336661930d6c586e412d7d4b2",
        "width" : 640
      }, {
        "height" : 300,
        "url" : "https://i.scdn.co/image/ab67616d00001e0236661930d6c586e412d7d4b2",
        "width" : 300
      }, {
        "height" : 64,
        "url" : "https://i.scdn.co/image/ab67616d0000485136661930d6c586e412d7d4b2",
        "width" : 64
      } ],
      "name" : "Indigo",
      "release_date" : "2022-12-02",
      "release_date_precision" : "day",
      "total_tracks" : 10,
      "type" : "album",
      "uri" : "spotify:album:08HCdXZVN72S2vpIT9DKhU"
    }, {
      "album_type" : "album",
      "artists" : [ {
        "external_urls" : {
          "spotify" : "https://open.spotify.com/artist/6KImCVD70vtIoJWnq6nGn3"
        },
        "href" : "https://api.spotify.com/v1/artists/6KImCVD70vtIoJWnq6nGn3",
        "id" : "6KImCVD70vtIoJWnq6nGn3",
        "name" : "Harry Styles",
        "type" : "artist",
        "uri" : "spotify:artist:6KImCVD70vtIoJWnq6nGn3"
      } ],
      "available_markets" : [ "AR", "AU", "AT", "BE", "BO", "BR", "BG", "CA", "CL", "CO", "CR", "CY", "CZ", "DK", "DO", "DE", "EC", "EE", "SV", "FI", "FR", "GR", "GT", "HN", "HK", "HU", "IS", "IE", "IT", "LV", "LT", "LU", "MY", "MT", "MX", "NL", "NZ", "NI", "NO", "PA", "PY", "PE", "PH", "PL", "PT", "SG", "SK", "ES", "SE", "CH", "TW", "TR", "UY", "US", "GB", "AD", "LI", "MC", "ID", "JP", "TH", "VN", "RO", "IL", "ZA", "SA", "AE", "BH", "QA", "OM", "KW", "EG", "MA", "DZ", "TN", "LB", "JO", "PS", "IN", "BY", "KZ", "MD", "UA", "AL", "BA", "HR", "ME", "MK", "RS", "SI", "KR", "BD", "PK", "LK", "GH", "KE", "NG", "TZ", "UG", "AG", "AM", "BS", "BB", "BZ", "BT", "BW", "BF", "CV", "CW", "DM", "FJ", "GM", "GE", "GD", "GW", "GY", "HT", "JM", "KI", "LS", "LR", "MW", "MV", "ML", "MH", "FM", "NA", "NR", "NE", "PW", "PG", "WS", "SM", "ST", "SN", "SC", "SL", "SB", "KN", "LC", "VC", "SR", "TL", "TO", "TT", "TV", "VU", "AZ", "BN", "BI", "KH", "CM", "TD", "KM", "GQ", "SZ", "GA", "GN", "KG", "LA", "MO", "MR", "MN", "NP", "RW", "TG", "UZ", "ZW", "BJ", "MG", "MU", "MZ", "AO", "CI", "DJ", "ZM", "CD", "CG", "IQ", "LY", "TJ", "VE", "ET", "XK" ],
      "external_urls" : {
        "spotify" : "https://open.spotify.com/album/5r36AJ6VOJtp00oxSkBZ5h"
      },
      "href" : "https://api.spotify.com/v1/albums/5r36AJ6VOJtp00oxSkBZ5h",
      "id" : "5r36AJ6VOJtp00oxSkBZ5h",
      "images" : [ {
        "height" : 640,
        "url" : "https://i.scdn.co/image/ab67616d0000b2732e8ed79e177ff6011076f5f0",
        "width" : 640
      }, {
        "height" : 300,
        "url" : "https://i.scdn.co/image/ab67616d00001e022e8ed79e177ff6011076f5f0",
        "width" : 300
      }, {
        "height" : 64,
        "url" : "https://i.scdn.co/image/ab67616d000048512e8ed79e177ff6011076f5f0",
        "width" : 64
      } ],
      "name" : "Harry's House",
      "release_date" : "2022-05-20",
      "release_date_precision" : "day",
      "total_tracks" : 13,
      "type" : "album",
      "uri" : "spotify:album:5r36AJ6VOJtp00oxSkBZ5h"
    }, {
      "album_type" : "album",
      "artists" : [ {
        "external_urls" : {
          "spotify" : "https://open.spotify.com/artist/4q3ewBCX7sLwd24euuV69X"
        },
        "href" : "https://api.spotify.com/v1/artists/4q3ewBCX7sLwd24euuV69X",
        "id" : "4q3ewBCX7sLwd24euuV69X",
        "name" : "Bad Bunny",
        "type" : "artist",
        "uri" : "spotify:artist:4q3ewBCX7sLwd24euuV69X"
      } ],
      "available_markets" : [ "AR", "AU", "AT", "BE", "BO", "BR", "BG", "CA", "CL", "CO", "CR", "CY", "CZ", "DK", "DO", "DE", "EC", "EE", "SV", "FI", "FR", "GR", "GT", "HN", "HK", "HU", "IS", "IE", "IT", "LV", "LT", "LU", "MY", "MT", "MX", "NL", "NZ", "NI", "NO", "PA", "PY", "PE", "PH", "PL", "PT", "SG", "SK", "ES", "SE", "CH", "TW", "TR", "UY", "US", "GB", "AD", "LI", "MC", "ID", "JP", "TH", "VN", "RO", "IL", "ZA", "SA", "AE", "BH", "QA", "OM", "KW", "EG", "MA", "DZ", "TN", "LB", "JO", "PS", "IN", "BY", "KZ", "MD", "UA", "AL", "BA", "HR", "ME", "MK", "RS", "SI", "KR", "BD", "PK", "LK", "GH", "KE", "NG", "TZ", "UG", "AG", "AM", "BS", "BB", "BZ", "BT", "BW", "BF", "CV", "CW", "DM", "FJ", "GM", "GE", "GD", "GW", "GY", "HT", "JM", "KI", "LS", "LR", "MW", "MV", "ML", "MH", "FM", "NA", "NR", "NE", "PW", "PG", "WS", "SM", "ST", "SN", "SC", "SL", "SB", "KN", "LC", "VC", "SR", "TL", "TO", "TT", "TV", "VU", "AZ", "BN", "BI", "KH", "CM", "TD", "KM", "GQ", "SZ", "GA", "GN", "KG", "LA", "MO", "MR", "MN", "NP", "RW", "TG", "UZ", "ZW", "BJ", "MG", "MU", "MZ", "AO", "CI", "DJ", "ZM", "CD", "CG", "IQ", "LY", "TJ", "VE", "ET", "XK" ],
      "external_urls" : {
        "spotify" : "https://open.spotify.com/album/3RQQmkQEvNCY4prGKE6oc5"
      },
      "href" : "https://api.spotify.com/v1/albums/3RQQmkQEvNCY4prGKE6oc5",
      "id" : "3RQQmkQEvNCY4prGKE6oc5",
      "images" : [ {
        "height" : 640,
        "url" : "https://i.scdn.co/image/ab67616d0000b27349d694203245f241a1bcaa72",
        "width" : 640
      }, {
        "height" : 300,
        "url" : "https://i.scdn.co/image/ab67616d00001e0249d694203245f241a1bcaa72",
        "width" : 300
      }, {
        "height" : 64,
        "url" : "https://i.scdn.co/image/ab67616d0000485149d694203245f241a1bcaa72",
        "width" : 64
      } ],
      "name" : "Un Verano Sin Ti",
      "release_date" : "2022-05-06",
      "release_date_precision" : "day",
      "total_tracks" : 23,
      "type" : "album",
      "uri" : "spotify:album:3RQQmkQEvNCY4prGKE6oc5"
    }, {
      "album_type" : "album",
      "artists" : [ {
        "external_urls" : {
          "spotify" : "https://open.spotify.com/artist/2R21vXR83lH98kGeO99Y66"
        },
        "href" : "https://api.spotify.com/v1/artists/2R21vXR83lH98kGeO99Y66",
        "id" : "2R21vXR83lH98kGeO99Y66",
        "name" : "Anuel AA",
        "type" : "artist",
        "uri" : "spotify:artist:2R21vXR83lH98kGeO99Y66"
      } ],
      "available_markets" : [ "AR", "AU", "AT", "BE", "BO", "BR", "BG", "CA", "CL", "CO", "CR", "CY", "CZ", "DK", "DO", "DE", "EC", "EE", "SV", "FI", "FR", "GR", "GT", "HN", "HK", "HU", "IS", "IE", "IT", "LV", "LT", "LU", "MY", "MT", "MX", "NL", "NZ", "NI", "NO", "PA", "PY", "PE", "PH", "PL", "PT", "SG", "SK", "ES", "SE", "CH", "TW", "TR", "UY", "US", "GB", "AD", "LI", "MC", "ID", "JP", "TH", "VN", "RO", "IL", "ZA", "SA", "AE", "BH", "QA", "OM", "KW", "EG", "MA", "DZ", "TN", "LB", "JO", "PS", "IN", "BY", "KZ", "MD", "UA", "AL", "BA", "HR", "ME", "MK", "RS", "SI", "KR", "BD", "PK", "LK", "GH", "KE", "NG", "TZ", "UG", "AG", "AM", "BS", "BB", "BZ", "BT", "BW", "BF", "CV", "CW", "DM", "FJ", "GM", "GE", "GD", "GW", "GY", "HT", "JM", "KI", "LS", "LR", "MW", "MV", "ML", "MH", "FM", "NA", "NR", "NE", "PW", "PG", "WS", "SM", "ST", "SN", "SC", "SL", "SB", "KN", "LC", "VC", "SR", "TL", "TO", "TT", "TV", "VU", "AZ", "BN", "BI", "KH", "CM", "TD", "KM", "GQ", "SZ", "GA", "GN", "KG", "LA", "MO", "MR", "MN", "NP", "RW", "TG", "UZ", "ZW", "BJ", "MG", "MU", "MZ", "AO", "CI", "DJ", "ZM", "CD", "CG", "IQ", "LY", "TJ", "VE", "ET", "XK" ],
      "external_urls" : {
        "spotify" : "https://open.spotify.com/album/4MTtBjQEt7i752hISXjKqA"
      },
      "href" : "https://api.spotify.com/v1/albums/4MTtBjQEt7i752hISXjKqA",
      "id" : "4MTtBjQEt7i752hISXjKqA",
      "images" : [ {
        "height" : 640,
        "url" : "https://i.scdn.co/image/ab67616d0000b2731fbb8aa211472dc81f4e4ebc",
        "width" : 640
      }, {
        "height" : 300,
        "url" : "https://i.scdn.co/image/ab67616d00001e021fbb8aa211472dc81f4e4ebc",
        "width" : 300
      }, {
        "height" : 64,
        "url" : "https://i.scdn.co/image/ab67616d000048511fbb8aa211472dc81f4e4ebc",
        "width" : 64
      } ],
      "name" : "Las Leyendas Nunca Mueren",
      "release_date" : "2021-11-26",
      "release_date_precision" : "day",
      "total_tracks" : 16,
      "type" : "album",
      "uri" : "spotify:album:4MTtBjQEt7i752hISXjKqA"
    }, {
      "album_type" : "album",
      "artists" : [ {
        "external_urls" : {
          "spotify" : "https://open.spotify.com/artist/4dpARuHxo51G3z768sgnrY"
        },
        "href" : "https://api.spotify.com/v1/artists/4dpARuHxo51G3z768sgnrY",
        "id" : "4dpARuHxo51G3z768sgnrY",
        "name" : "Adele",
        "type" : "artist",
        "uri" : "spotify:artist:4dpARuHxo51G3z768sgnrY"
      } ],
      "available_markets" : [ "AR", "AU", "AT", "BE", "BO", "BR", "BG", "CA", "CL", "CO", "CR", "CY", "CZ", "DK", "DO", "DE", "EC", "EE", "SV", "FI", "FR", "GR", "GT", "HN", "HK", "HU", "IS", "IE", "IT", "LV", "LT", "LU", "MY", "MT", "MX", "NL", "NZ", "NI", "NO", "PA", "PY", "PE", "PH", "PL", "PT", "SG", "SK", "ES", "SE", "CH", "TW", "TR", "UY", "US", "GB", "AD", "LI", "MC", "ID", "JP", "TH", "VN", "RO", "IL", "ZA", "SA", "AE", "BH", "QA", "OM", "KW", "EG", "MA", "DZ", "TN", "LB", "JO", "PS", "IN", "BY", "KZ", "MD", "UA", "AL", "BA", "HR", "ME", "MK", "RS", "SI", "KR", "BD", "PK", "LK", "GH", "KE", "NG", "TZ", "UG", "AG", "AM", "BS", "BB", "BZ", "BT", "BW", "BF", "CV", "CW", "DM", "FJ", "GM", "GE", "GD", "GW", "GY", "HT", "JM", "KI", "LS", "LR", "MW", "MV", "ML", "MH", "FM", "NA", "NR", "NE", "PW", "PG", "WS", "SM", "ST", "SN", "SC", "SL", "SB", "KN", "LC", "VC", "SR", "TL", "TO", "TT", "TV", "VU", "AZ", "BN", "BI", "KH", "CM", "TD", "KM", "GQ", "SZ", "GA", "GN", "KG", "LA", "MO", "MR", "MN", "NP", "RW", "TG", "UZ", "ZW", "BJ", "MG", "MU", "MZ", "AO", "CI", "DJ", "ZM", "CD", "CG", "IQ", "LY", "TJ", "VE", "ET", "XK" ],
      "external_urls" : {
        "spotify" : "https://open.spotify.com/album/21jF5jlMtzo94wbxmJ18aa"
      },
      "href" : "https://api.spotify.com/v1/albums/21jF5jlMtzo94wbxmJ18aa",
      "id" : "21jF5jlMtzo94wbxmJ18aa",
      "images" : [ {
        "height" : 640,
        "url" : "https://i.scdn.co/image/ab67616d0000b273c6b577e4c4a6d326354a89f7",
        "width" : 640
      }, {
        "height" : 300,
        "url" : "https://i.scdn.co/image/ab67616d00001e02c6b577e4c4a6d326354a89f7",
        "width" : 300
      }, {
        "height" : 64,
        "url" : "https://i.scdn.co/image/ab67616d00004851c6b577e4c4a6d326354a89f7",
        "width" : 64
      } ],
      "name" : "30",
      "release_date" : "2021-11-19",
      "release_date_precision" : "day",
      "total_tracks" : 12,
      "type" : "album",
      "uri" : "spotify:album:21jF5jlMtzo94wbxmJ18aa"
    }, {
      "album_type" : "album",
      "artists" : [ {
        "external_urls" : {
          "spotify" : "https://open.spotify.com/artist/6eUKZXaKkcviH0Ku9w2n3V"
        },
        "href" : "https://api.spotify.com/v1/artists/6eUKZXaKkcviH0Ku9w2n3V",
        "id" : "6eUKZXaKkcviH0Ku9w2n3V",
        "name" : "Ed Sheeran",
        "type" : "artist",
        "uri" : "spotify:artist:6eUKZXaKkcviH0Ku9w2n3V"
      } ],
      "available_markets" : [ "AR", "AU", "AT", "BE", "BO", "BR", "BG", "CA", "CL", "CO", "CR", "CY", "CZ", "DK", "DO", "DE", "EC", "EE", "SV", "FI", "FR", "GR", "GT", "HN", "HK", "HU", "IS", "IE", "IT", "LV", "LT", "LU", "MY", "MT", "MX", "NL", "NZ", "NI", "NO", "PA", "PY", "PE", "PH", "PL", "PT", "SG", "SK", "ES", "SE", "CH", "TW", "TR", "UY", "US", "GB", "AD", "LI", "MC", "ID", "JP", "TH", "VN", "RO", "IL", "ZA", "SA", "AE", "BH", "QA", "OM", "KW", "EG", "MA", "DZ", "TN", "LB", "JO", "PS", "IN", "BY", "KZ", "MD", "UA", "AL", "BA", "HR", "ME", "MK", "RS", "SI", "KR", "BD", "PK", "LK", "GH", "KE", "NG", "TZ", "UG", "AG", "AM", "BS", "BB", "BZ", "BT", "BW", "BF", "CV", "CW", "DM", "FJ", "GM", "GE", "GD", "GW", "GY", "HT", "JM", "KI", "LS", "LR", "MW", "MV", "ML", "MH", "FM", "NA", "NR", "NE", "PW", "PG", "WS", "SM", "ST", "SN", "SC", "SL", "SB", "KN", "LC", "VC", "SR", "TL", "TO", "TT", "TV", "VU", "AZ", "BN", "BI", "KH", "CM", "TD", "KM", "GQ", "SZ", "GA", "GN", "KG", "LA", "MO", "MR", "MN", "NP", "RW", "TG", "UZ", "ZW", "BJ", "MG", "MU", "MZ", "AO", "CI", "DJ", "ZM", "CD", "CG", "IQ", "LY", "TJ", "VE", "ET", "XK" ],
      "external_urls" : {
        "spotify" : "https://open.spotify.com/album/32iAEBstCjauDhyKpGjTuq"
      },
      "href" : "https://api.spotify.com/v1/albums/32iAEBstCjauDhyKpGjTuq",
      "id" : "32iAEBstCjauDhyKpGjTuq",
      "images" : [ {
        "height" : 640,
        "url" : "https://i.scdn.co/image/ab67616d0000b273ef24c3fdbf856340d55cfeb2",
        "width" : 640
      }, {
        "height" : 300,
        "url" : "https://i.scdn.co/image/ab67616d00001e02ef24c3fdbf856340d55cfeb2",
        "width" : 300
      }, {
        "height" : 64,
        "url" : "https://i.scdn.co/image/ab67616d00004851ef24c3fdbf856340d55cfeb2",
        "width" : 64
      } ],
      "name" : "=",
      "release_date" : "2021-10-29",
      "release_date_precision" : "day",
      "total_tracks" : 14,
      "type" : "album",
      "uri" : "spotify:album:32iAEBstCjauDhyKpGjTuq"
    }, {
      "album_type" : "album",
      "artists" : [ {
        "external_urls" : {
          "spotify" : "https://open.spotify.com/artist/4gzpq5DPGxSnKTe4SA8HAU"
        },
        "href" : "https://api.spotify.com/v1/artists/4gzpq5DPGxSnKTe4SA8HAU",
        "id" : "4gzpq5DPGxSnKTe4SA8HAU",
        "name" : "Coldplay",
        "type" : "artist",
        "uri" : "spotify:artist:4gzpq5DPGxSnKTe4SA8HAU"
      } ],
      "available_markets" : [ "AR", "AU", "AT", "BE", "BO", "BR", "BG", "CA", "CL", "CO", "CR", "CY", "CZ", "DK", "DO", "DE", "EC", "EE", "SV", "FI", "FR", "GR", "GT", "HN", "HK", "HU", "IS", "IE", "IT", "LV", "LT", "LU", "MY", "MT", "MX", "NL", "NZ", "NI", "NO", "PA", "PY", "PE", "PH", "PL", "PT", "SG", "SK", "ES", "SE", "CH", "TW", "TR", "UY", "US", "GB", "AD", "LI", "MC", "ID", "JP", "TH", "VN", "RO", "IL", "ZA", "SA", "AE", "BH", "QA", "OM", "KW", "EG", "MA", "DZ", "TN", "LB", "JO", "PS", "IN", "BY", "KZ", "MD", "UA", "AL", "BA", "HR", "ME", "MK", "RS", "SI", "KR", "BD", "PK", "LK", "GH", "KE", "NG", "TZ", "UG", "AG", "AM", "BS", "BB", "BZ", "BT", "BW", "BF", "CV", "CW", "DM", "FJ", "GM", "GE", "GD", "GW", "GY", "HT", "JM", "KI", "LS", "LR", "MW", "MV", "ML", "MH", "FM", "NA", "NR", "NE", "PW", "PG", "WS", "SM", "ST", "SN", "SC", "SL", "SB", "KN", "LC", "VC", "SR", "TL", "TO", "TT", "TV", "VU", "AZ", "BN", "BI", "KH", "CM", "TD", "KM", "GQ", "SZ", "GA", "GN", "KG", "LA", "MO", "MR", "MN", "NP", "RW", "TG", "UZ", "ZW", "BJ", "MG", "MU", "MZ", "AO", "CI", "DJ", "ZM", "CD", "CG", "IQ", "LY", "TJ", "VE", "ET", "XK" ],
      "external_urls" : {
        "spotify" : "https://open.spotify.com/album/06mXfvDsRZNfnsGZvX2zpb"
      },
      "href" : "https://api.spotify.com/v1/albums/06mXfvDsRZNfnsGZvX2zpb",
      "id" : "06mXfvDsRZNfnsGZvX2zpb",
      "images" : [ {
        "height" : 640,
        "url" : "https://i.scdn.co/image/ab67616d0000b273ec10f247b100da1ce0d80b6d",
        "width" : 640
      }, {
        "height" : 300,
        "url" : "https://i.scdn.co/image/ab67616d00001e02ec10f247b100da1ce0d80b6d",
        "width" : 300
      }, {
        "height" : 64,
        "url" : "https://i.scdn.co/image/ab67616d00004851ec10f247b100da1ce0d80b6d",
        "width" : 64
      } ],
      "name" : "Music Of The Spheres",
      "release_date" : "2021-10-15",
      "release_date_precision" : "day",
      "total_tracks" : 12,
      "type" : "album",
      "uri" : "spotify:album:06mXfvDsRZNfnsGZvX2zpb"
    }, {
      "album_type" : "album",
      "artists" : [ {
        "external_urls" : {
          "spotify" : "https://open.spotify.com/artist/53KwLdlmrlCelAZMaLVZqU"
        },
        "href" : "https://api.spotify.com/v1/artists/53KwLdlmrlCelAZMaLVZqU",
        "id" : "53KwLdlmrlCelAZMaLVZqU",
        "name" : "James Blake",
        "type" : "artist",
        "uri" : "spotify:artist:53KwLdlmrlCelAZMaLVZqU"
      } ],
      "available_markets" : [ "AR", "AU", "AT", "BE", "BO", "BR", "BG", "CA", "CL", "CO", "CR", "CY", "CZ", "DK", "DO", "DE", "EC", "EE", "SV", "FI", "FR", "GR", "GT", "HN", "HK", "HU", "IS", "IE", "IT", "LV", "LT", "LU", "MY", "MT", "MX", "NL", "NZ", "NI", "NO", "PA", "PY", "PE", "PH", "PL", "PT", "SG", "SK", "ES", "SE", "CH", "TW", "TR", "UY", "US", "GB", "AD", "LI", "MC", "ID", "JP", "TH", "VN", "RO", "IL", "ZA", "SA", "AE", "BH", "QA", "OM", "KW", "EG", "MA", "DZ", "TN", "LB", "JO", "PS", "IN", "BY", "KZ", "MD", "UA", "AL", "BA", "HR", "ME", "MK", "RS", "SI", "KR", "BD", "PK", "LK", "GH", "KE", "NG", "TZ", "UG", "AG", "AM", "BS", "BB", "BZ", "BT", "BW", "BF", "CV", "CW", "DM", "FJ", "GM", "GE", "GD", "GW", "GY", "HT", "JM", "KI", "LS", "LR", "MW", "MV", "ML", "MH", "FM", "NA", "NR", "NE", "PW", "PG", "WS", "SM", "ST", "SN", "SC", "SL", "SB", "KN", "LC", "VC", "SR", "TL", "TO", "TT", "TV", "VU", "AZ", "BN", "BI", "KH", "CM", "TD", "KM", "GQ", "SZ", "GA", "GN", "KG", "LA", "MO", "MR", "MN", "NP", "RW", "TG", "UZ", "ZW", "BJ", "MG", "MU", "MZ", "AO", "CI", "DJ", "ZM", "CD", "CG", "IQ", "LY", "TJ", "VE", "ET", "XK" ],
      "external_urls" : {
        "spotify" : "https://open.spotify.com/album/1zNtJFMCNIyT0X19jpcI3j"
      },
      "href" : "https://api.spotify.com/v1/albums/1zNtJFMCNIyT0X19jpcI3j",
      "id" : "1zNtJFMCNIyT0X19jpcI3j",
      "images" : [ {
        "height" : 640,
        "url" : "https://i.scdn.co/image/ab67616d0000b27338d030048ec770b15633dbc1",
        "width" : 640
      }, {
        "height" : 300,
        "url" : "https://i.scdn.co/image/ab67616d00001e0238d030048ec770b15633dbc1",
        "width" : 300
      }, {
        "height" : 64,
        "url" : "https://i.scdn.co/image/ab67616d0000485138d030048ec770b15633dbc1",
        "width" : 64
      } ],
      "name" : "Friends That Break Your Heart",
      "release_date" : "2021-10-08",
      "release_date_precision" : "day",
      "total_tracks" : 12,
      "type" : "album",
      "uri" : "spotify:album:1zNtJFMCNIyT0X19jpcI3j"
    }, {
      "album_type" : "album",
      "artists" : [ {
        "external_urls" : {
          "spotify" : "https://open.spotify.com/artist/4MzJMcHQBl9SIYSjwWn8QW"
        },
        "href" : "https://api.spotify.com/v1/artists/4MzJMcHQBl9SIYSjwWn8QW",
        "id" : "4MzJMcHQBl9SIYSjwWn8QW",
        "name" : "Spiritbox",
        "type" : "artist",
        "uri" : "spotify:artist:4MzJMcHQBl9SIYSjwWn8QW"
      } ],
      "available_markets" : [ ],
      "external_urls" : {
        "spotify" : "https://open.spotify.com/album/6cZ39G1mahxDAGfoPzDllb"
      },
      "href" : "https://api.spotify.com/v1/albums/6cZ39G1mahxDAGfoPzDllb",
      "id" : "6cZ39G1mahxDAGfoPzDllb",
      "images" : [ {
        "height" : 640,
        "url" : "https://i.scdn.co/image/ab67616d0000b2730006a537a6e19505ca5593eb",
        "width" : 640
      }, {
        "height" : 300,
        "url" : "https://i.scdn.co/image/ab67616d00001e020006a537a6e19505ca5593eb",
        "width" : 300
      }, {
        "height" : 64,
        "url" : "https://i.scdn.co/image/ab67616d000048510006a537a6e19505ca5593eb",
        "width" : 64
      } ],
      "name" : "Eternal Blue",
      "release_date" : "2021-09-17",
      "release_date_precision" : "day",
      "total_tracks" : 12,
      "type" : "album",
      "uri" : "spotify:album:6cZ39G1mahxDAGfoPzDllb"
    }, {
      "album_type" : "album",
      "artists" : [ {
        "external_urls" : {
          "spotify" : "https://open.spotify.com/artist/1vyhD5VmyZ7KMfW5gqLgo5"
        },
        "href" : "https://api.spotify.com/v1/artists/1vyhD5VmyZ7KMfW5gqLgo5",
        "id" : "1vyhD5VmyZ7KMfW5gqLgo5",
        "name" : "J Balvin",
        "type" : "artist",
        "uri" : "spotify:artist:1vyhD5VmyZ7KMfW5gqLgo5"
      } ],
      "available_markets" : [ "AR", "AU", "AT", "BE", "BO", "BR", "BG", "CA", "CL", "CO", "CR", "CY", "CZ", "DK", "DO", "DE", "EC", "EE", "SV", "FI", "FR", "GR", "GT", "HN", "HK", "HU", "IS", "IE", "IT", "LV", "LT", "LU", "MY", "MT", "MX", "NL", "NZ", "NI", "NO", "PA", "PY", "PE", "PH", "PL", "PT", "SG", "SK", "ES", "SE", "CH", "TW", "TR", "UY", "US", "GB", "AD", "LI", "MC", "ID", "JP", "TH", "VN", "RO", "IL", "ZA", "SA", "AE", "BH", "QA", "OM", "KW", "EG", "MA", "DZ", "TN", "LB", "JO", "PS", "IN", "BY", "KZ", "MD", "UA", "AL", "BA", "HR", "ME", "MK", "RS", "SI", "KR", "BD", "PK", "LK", "GH", "KE", "NG", "TZ", "UG", "AG", "AM", "BS", "BB", "BZ", "BT", "BW", "BF", "CV", "CW", "DM", "FJ", "GM", "GE", "GD", "GW", "GY", "HT", "JM", "KI", "LS", "LR", "MW", "MV", "ML", "MH", "FM", "NA", "NR", "NE", "PW", "PG", "WS", "SM", "ST", "SN", "SC", "SL", "SB", "KN", "LC", "VC", "SR", "TL", "TO", "TT", "TV", "VU", "AZ", "BN", "BI", "KH", "CM", "TD", "KM", "GQ", "SZ", "GA", "GN", "KG", "LA", "MO", "MR", "MN", "NP", "RW", "TG", "UZ", "ZW", "BJ", "MG", "MU", "MZ", "AO", "CI", "DJ", "ZM", "CD", "CG", "IQ", "LY", "TJ", "VE", "ET", "XK" ],
      "external_urls" : {
        "spotify" : "https://open.spotify.com/album/11GmvpYnbgK0rSryPaV5BP"
      },
      "href" : "https://api.spotify.com/v1/albums/11GmvpYnbgK0rSryPaV5BP",
      "id" : "11GmvpYnbgK0rSryPaV5BP",
      "images" : [ {
        "height" : 640,
        "url" : "https://i.scdn.co/image/ab67616d0000b273922a7339d969b5f0262580f5",
        "width" : 640
      }, {
        "height" : 300,
        "url" : "https://i.scdn.co/image/ab67616d00001e02922a7339d969b5f0262580f5",
        "width" : 300
      }, {
        "height" : 64,
        "url" : "https://i.scdn.co/image/ab67616d00004851922a7339d969b5f0262580f5",
        "width" : 64
      } ],
      "name" : "JOSE",
      "release_date" : "2021-09-10",
      "release_date_precision" : "day",
      "total_tracks" : 24,
      "type" : "album",
      "uri" : "spotify:album:11GmvpYnbgK0rSryPaV5BP"
    } ],
    "limit" : 10,
    "next" : "https://api.spotify.com/v1/browse/new-releases?country=ES&offset=15&limit=10",
    "offset" : 5,
    "previous" : "https://api.spotify.com/v1/browse/new-releases?country=ES&offset=0&limit=10",
    "total" : 100
  }
}