{
  "artists" : {
    "href" : "https://api.spotify.com/v1/search?query=rosa&type=artist&offset=0&limit=20",
    "items" : [ {
      "external_urls" : {
        "spotify" : "https://open.spotify.com/artist/7ltDVBr6mKbRvohxheJ9h1"
      },
      "followers" : {
        "href" : null,
        "total" : 8011644
      },
      "genres" : [ "latin viral pop", "pop", "r&b en espanol" ],
      "href" : "https://api.spotify.com/v1/artists/7ltDVBr6mKbRvohxheJ9h1",
      "id" : "7ltDVBr6mKbRvohxheJ9h1",
      "images" : [ {
        "height" : 640,
        "url" : "https://i.scdn.co/image/ab6761610000e5ebd7bb678bef6d2f26110cae49",
        "width" : 640
      }, {
        "height" : 320,
        "url" : "https://i.scdn.co/image/ab67616100005174d7bb678bef6d2f26110cae49",
        "width" : 320
      }, {
        "height" : 160,
        "url" : "https://i.scdn.co/image/ab6761610000f178d7bb678bef6d2f26110cae49",
        "width" : 160
      } ],
      "name" : "ROSALÍA",
      "popularity" : 78,
      "type" : "artist",
      "uri" : "spotify:artist:7ltDVBr6mKbRvohxheJ9h1"
    }, {
      "external_urls" : {
        "spotify" : "https://open.spotify.com/artist/46xBNx0j6cwY6sD9LgMTm1"
      },
      "followers" : {
        "href" : null,
        "total" : 314183
      },
      "genres" : [ "alt z" ],
      "href" : "https://api.spotify.com/v1/artists/46xBNx0j6cwY6sD9LgMTm1",
      "id" : "46xBNx0j6cwY6sD9LgMTm1",
      "images" : [ {
        "height" : 640,
        "url" : "https://i.scdn.co/image/ab6761610000e5ebc5fe9684ed75d00000b63791",
        "width" : 640
      }, {
        "height" : 320,
        "url" : "https://i.scdn.co/image/ab67616100005174c5fe9684ed75d00000b63791",
        "width" : 320
      }, {
        "height" : 160,
        "url" : "https://i.scdn.co/image/ab6761610000f178c5fe9684ed75d00000b63791",
        "width" : 160
      } ],
      "name" : "Rosa Linn",
      "popularity" : 67,
      "type" : "artist",
      "uri" : "spotify:artist:46xBNx0j6cwY6sD9LgMTm1"
    }, {
      "external_urls" : {
        "spotify" : "https://open.spotify.com/artist/05xSLrRgGwm2nCH2SmnNMW"
      },
      "followers" : {
        "href" : null,
        "total" : 762602
      },
      "genres" : [ "cantautor", "spanish pop" ],
      "href" : "https://api.spotify.com/v1/artists/05xSLrRgGwm2nCH2SmnNMW",
      "id" : "05xSLrRgGwm2nCH2SmnNMW",
      "images" : [ {
        "height" : 640,
        "url" : "https://i.scdn.co/image/ab6761610000e5eba9298a06d6f6e4f4a54c0af2",
        "width" : 640
      }, {
        "height" : 320,
        "url" : "https://i.scdn.co/image/ab67616100005174a9298a06d6f6e4f4a54c0af2",
        "width" : 320
      }, {
        "height" : 160,
        "url" : "https://i.scdn.co/image/ab6761610000f178a9298a06d6f6e4f4a54c0af2",
        "width" : 160
      } ],
      "name" : "Rosario",
      "popularity" : 57,
      "type" : "artist",
      "uri" : "spotify:artist:05xSLrRgGwm2nCH2SmnNMW"
    }, {
      "external_urls" : {
        "spotify" : "https://open.spotify.com/artist/1X0HaTcdkHW7LviblBiEeq"
      },
      "followers" : {
        "href" : null,
        "total" : 24626
      },
      "genres" : [ ],
      "href" : "https://api.spotify.com/v1/artists/1X0HaTcdkHW7LviblBiEeq",
      "id" : "1X0HaTcdkHW7LviblBiEeq",
      "images" : [ {
        "height" : 640,
        "url" : "https://i.scdn.co/image/ab6761610000e5ebc0c038e8fe31ae46ed87d6e7",
        "width" : 640
      }, {
        "height" : 320,
        "url" : "https://i.scdn.co/image/ab67616100005174c0c038e8fe31ae46ed87d6e7",
        "width" : 320
      }, {
        "height" : 160,
        "url" : "https://i.scdn.co/image/ab6761610000f178c0c038e8fe31ae46ed87d6e7",
        "width" : 160
      } ],
      "name" : "Rosa Walton",
      "popularity" : 56,
      "type" : "artist",
      "uri" : "spotify:artist:1X0HaTcdkHW7LviblBiEeq"
    }, {
      "external_urls" : {
        "spotify" : "https://open.spotify.com/artist/6lx6XS8umFqYRVbBErx9fE"
      },
      "followers" : {
        "href" : null,
        "total" : 171760
      },
      "genres" : [ "classic country pop", "country rock", "folk", "lilith", "singer-songwriter" ],
      "href" : "https://api.spotify.com/v1/artists/6lx6XS8umFqYRVbBErx9fE",
      "id" : "6lx6XS8umFqYRVbBErx9fE",
      "images" : [ {
        "height" : 640,
        "url" : "https://i.scdn.co/image/ab6761610000e5eb09d23d5069404d2614347d07",
        "width" : 640
      }, {
        "height" : 320,
        "url" : "https://i.scdn.co/image/ab6761610000517409d23d5069404d2614347d07",
        "width" : 320
      }, {
        "height" : 160,
        "url" : "https://i.scdn.co/image/ab6761610000f17809d23d5069404d2614347d07",
        "width" : 160
      } ],
      "name" : "Rosanne Cash",
      "popularity" : 47,
      "type" : "artist",
      "uri" : "spotify:artist:6lx6XS8umFqYRVbBErx9fE"
    }, {
      "external_urls" : {
        "spotify" : "https://open.spotify.com/artist/6sacEP77oivRMuZRlOuSCr"
      },
      "followers" : {
        "href" : null,
        "total" : 4194
      },
      "genres" : [ ],
      "href" : "https://api.spotify.com/v1/artists/6sacEP77oivRMuZRlOuSCr",
      "id" : "6sacEP77oivRMuZRlOuSCr",
      "images" : [ {
        "height" : 640,
        "url" : "https://i.scdn.co/image/ab6761610000e5eb51bcb7c48f1067ef16df1267",
        "width" : 640
      }, {
        "height" : 320,
        "url" : "https://i.scdn.co/image/ab6761610000517451bcb7c48f1067ef16df1267",
        "width" : 320
      }, {
        "height" : 160,
        "url" : "https://i.scdn.co/image/ab6761610000f17851bcb7c48f1067ef16df1267",
        "width" : 160
      } ],
      "name" : "Ro$ama",
      "popularity" : 44,
      "type" : "artist",
      "uri" : "spotify:artist:6sacEP77oivRMuZRlOuSCr"
    }, {
      "external_urls" : {
        "spotify" : "https://open.spotify.com/artist/5gGhRZgP9BJL9fsFdvTzeX"
      },
      "followers" : {
        "href" : null,
        "total" : 8436
      },
      "genres" : [ "hollywood", "show tunes" ],
      "href" : "https://api.spotify.com/v1/artists/5gGhRZgP9BJL9fsFdvTzeX",
      "id" : "5gGhRZgP9BJL9fsFdvTzeX",
      "images" : [ ],
      "name" : "Rosario Dawson",
      "popularity" : 43,
      "type" : "artist",
      "uri" : "spotify:artist:5gGhRZgP9BJL9fsFdvTzeX"
    }, {
      "external_urls" : {
        "spotify" : "https://open.spotify.com/artist/1mcTU81TzQhprhouKaTkpq"
      },
      "followers" : {
        "href" : null,
        "total" : 19353165
      },
      "genres" : [ "puerto rican pop", "reggaeton", "trap latino", "urbano latino" ],
      "href" : "https://api.spotify.com/v1/artists/1mcTU81TzQhprhouKaTkpq",
      "id" : "1mcTU81TzQhprhouKaTkpq",
      "images" : [ {
        "height" : 640,
        "url" : "https://i.scdn.co/image/ab6761610000e5eb9047f938310ea16b68a5bdeb",
        "width" : 640
      }, {
        "height" : 320,
        "url" : "https://i.scdn.co/image/ab676161000051749047f938310ea16b68a5bdeb",
        "width" : 320
      }, {
        "height" : 160,
        "url" : "https://i.scdn.co/image/ab6761610000f1789047f938310ea16b68a5bdeb",
        "width" : 160
      } ],
      "name" : "Rauw Alejandro",
      "popularity" : 85,
      "type" : "artist",
      "uri" : "spotify:artist:1mcTU81TzQhprhouKaTkpq"
    }, {
      "external_urls" : {
        "spotify" : "https://open.spotify.com/artist/5ttV0N9HvMH3KLqNKcS2M0"
      },
      "followers" : {
        "href" : null,
        "total" : 854222
      },
      "genres" : [ "cantautor", "latin pop", "mexican pop", "musica canaria", "spanish pop" ],
      "href" : "https://api.spotify.com/v1/artists/5ttV0N9HvMH3KLqNKcS2M0",
      "id" : "5ttV0N9HvMH3KLqNKcS2M0",
      "images" : [ {
        "height" : 640,
        "url" : "https://i.scdn.co/image/ab6761610000e5eb8182d628346892817c6d0df4",
        "width" : 640
      }, {
        "height" : 320,
        "url" : "https://i.scdn.co/image/ab676161000051748182d628346892817c6d0df4",
        "width" : 320
      }, {
        "height" : 160,
        "url" : "https://i.scdn.co/image/ab6761610000f1788182d628346892817c6d0df4",
        "width" : 160
      } ],
      "name" : "Rosana",
      "popularity" : 56,
      "type" : "artist",
      "uri" : "spotify:artist:5ttV0N9HvMH3KLqNKcS2M0"
    }, {
      "external_urls" : {
        "spotify" : "https://open.spotify.com/artist/7EBn9lIBKysikqbU2XDnoX"
      },
      "followers" : {
        "href" : null,
        "total" : 427950
      },
      "genres" : [ "rock cristiano", "rock gospel brasileiro" ],
      "href" : "https://api.spotify.com/v1/artists/7EBn9lIBKysikqbU2XDnoX",
      "id" : "7EBn9lIBKysikqbU2XDnoX",
      "images" : [ {
        "height" : 640,
        "url" : "https://i.scdn.co/image/ab6761610000e5eb863b7088b528219874a9648a",
        "width" : 640
      }, {
        "height" : 320,
        "url" : "https://i.scdn.co/image/ab67616100005174863b7088b528219874a9648a",
        "width" : 320
      }, {
        "height" : 160,
        "url" : "https://i.scdn.co/image/ab6761610000f178863b7088b528219874a9648a",
        "width" : 160
      } ],
      "name" : "Rosa de Saron",
      "popularity" : 53,
      "type" : "artist",
      "uri" : "spotify:artist:7EBn9lIBKysikqbU2XDnoX"
    }, {
      "external_urls" : {
        "spotify" : "https://open.spotify.com/artist/28SJ1LuRJWcILK2Mz0uZmn"
      },
      "followers" : {
        "href" : null,
        "total" : 122
      },
      "genres" : [ ],
      "href" : "https://api.spotify.com/v1/artists/28SJ1LuRJWcILK2Mz0uZmn",
      "id" : "28SJ1LuRJWcILK2Mz0uZmn",
      "images" : [ {
        "height" : 640,
        "url" : "https://i.scdn.co/image/ab67616d0000b2735490987704fd582b78cc6e96",
        "width" : 640
      }, {
        "height" : 300,
        "url" : "https://i.scdn.co/image/ab67616d00001e025490987704fd582b78cc6e96",
        "width" : 300
      }, {
        "height" : 64,
        "url" : "https://i.scdn.co/image/ab67616d000048515490987704fd582b78cc6e96",
        "width" : 64
      } ],
      "name" : "Rosa Mahoney",
      "popularity" : 39,
      "type" : "artist",
      "uri" : "spotify:artist:28SJ1LuRJWcILK2Mz0uZmn"
    }, {
      "external_urls" : {
        "spotify" : "https://open.spotify.com/artist/4q3ewBCX7sLwd24euuV69X"
      },
      "followers" : {
        "href" : null,
        "total" : 76730910
      },
      "genres" : [ "reggaeton", "trap latino", "urbano latino" ],
      "href" : "https://api.spotify.com/v1/artists/4q3ewBCX7sLwd24euuV69X",
      "id" : "4q3ewBCX7sLwd24euuV69X",
      "images" : [ {
        "height" : 640,
        "url" : "https://i.scdn.co/image/ab6761610000e5eb9ad50e478a469448c6f369df",
        "width" : 640
      }, {
        "height" : 320,
        "url" : "https://i.scdn.co/image/ab676161000051749ad50e478a469448c6f369df",
        "width" : 320
      }, {
        "height" : 160,
        "url" : "https://i.scdn.co/image/ab6761610000f1789ad50e478a469448c6f369df",
        "width" : 160
      } ],
      "name" : "Bad Bunny",
      "popularity" : 95,
      "type" : "artist",
      "uri" : "spotify:artist:4q3ewBCX7sLwd24euuV69X"
    }, {
      "external_urls" : {
        "spotify" : "https://open.spotify.com/artist/13f3uLVCX4o7wjqwtVlDwC"
      },
      "followers" : {
        "href" : null,
        "total" : 772
      },
      "genres" : [ ],
      "href" : "https://api.spotify.com/v1/artists/13f3uLVCX4o7wjqwtVlDwC",
      "id" : "13f3uLVCX4o7wjqwtVlDwC",
      "images" : [ {
        "height" : 640,
        "url" : "https://i.scdn.co/image/ab6761610000e5eb51eea5666bb43c50ae17fceb",
        "width" : 640
      }, {
        "height" : 320,
        "url" : "https://i.scdn.co/image/ab6761610000517451eea5666bb43c50ae17fceb",
        "width" : 320
      }, {
        "height" : 160,
        "url" : "https://i.scdn.co/image/ab6761610000f17851eea5666bb43c50ae17fceb",
        "width" : 160
      } ],
      "name" : "Rosa Løvstrøm",
      "popularity" : 40,
      "type" : "artist",
      "uri" : "spotify:artist:13f3uLVCX4o7wjqwtVlDwC"
    }, {
      "external_urls" : {
        "spotify" : "https://open.spotify.com/artist/790FomKkXshlbRYZFtlgla"
      },
      "followers" : {
        "href" : null,
        "total" : 41635026
      },
      "genres" : [ "reggaeton", "reggaeton colombiano", "trap latino", "urbano latino" ],
      "href" : "https://api.spotify.com/v1/artists/790FomKkXshlbRYZFtlgla",
      "id" : "790FomKkXshlbRYZFtlgla",
      "images" : [ {
        "height" : 640,
        "url" : "https://i.scdn.co/image/ab6761610000e5ebeb97a2403d7b9a631ce0f59c",
        "width" : 640
      }, {
        "height" : 320,
        "url" : "https://i.scdn.co/image/ab67616100005174eb97a2403d7b9a631ce0f59c",
        "width" : 320
      }, {
        "height" : 160,
        "url" : "https://i.scdn.co/image/ab6761610000f178eb97a2403d7b9a631ce0f59c",
        "width" : 160
      } ],
      "name" : "KAROL G",
      "popularity" : 88,
      "type" : "artist",
      "uri" : "spotify:artist:790FomKkXshlbRYZFtlgla"
    }, {
      "external_urls" : {
        "spotify" : "https://open.spotify.com/artist/4s5tfHvAPebz3Ue4DP6KTb"
      },
      "followers" : {
        "href" : null,
        "total" : 60
      },
      "genres" : [ "instrumental lullaby" ],
      "href" : "https://api.spotify.com/v1/artists/4s5tfHvAPebz3Ue4DP6KTb",
      "id" : "4s5tfHvAPebz3Ue4DP6KTb",
      "images" : [ {
        "height" : 640,
        "url" : "https://i.scdn.co/image/ab67616d0000b27373376c22a483f90ade695359",
        "width" : 640
      }, {
        "height" : 300,
        "url" : "https://i.scdn.co/image/ab67616d00001e0273376c22a483f90ade695359",
        "width" : 300
      }, {
        "height" : 64,
        "url" : "https://i.scdn.co/image/ab67616d0000485173376c22a483f90ade695359",
        "width" : 64
      } ],
      "name" : "Rosalie Andersdotter",
      "popularity" : 39,
      "type" : "artist",
      "uri" : "spotify:artist:4s5tfHvAPebz3Ue4DP6KTb"
    }, {
      "external_urls" : {
        "spotify" : "https://open.spotify.com/artist/29RJXyTjyHr7EapAjoXxuW"
      },
      "followers" : {
        "href" : null,
        "total" : 3359
      },
      "genres" : [ ],
      "href" : "https://api.spotify.com/v1/artists/29RJXyTjyHr7EapAjoXxuW",
      "id" : "29RJXyTjyHr7EapAjoXxuW",
      "images" : [ {
        "height" : 640,
        "url" : "https://i.scdn.co/image/ab6761610000e5eb61d3bd25675b9cd3ae981330",
        "width" : 640
      }, {
        "height" : 320,
        "url" : "https://i.scdn.co/image/ab6761610000517461d3bd25675b9cd3ae981330",
        "width" : 320
      }, {
        "height" : 160,
        "url" : "https://i.scdn.co/image/ab6761610000f17861d3bd25675b9cd3ae981330",
        "width" : 160
      } ],
      "name" : "Rosa",
      "popularity" : 20,
      "type" : "artist",
      "uri" : "spotify:artist:29RJXyTjyHr7EapAjoXxuW"
    }, {
      "external_urls" : {
        "spotify" : "https://open.spotify.com/artist/58PEgJMZGqZ5d3CHYJTGv7"
      },
      "followers" : {
        "href" : null,
        "total" : 64
      },
      "genres" : [ ],
      "href" : "https://api.spotify.com/v1/artists/58PEgJMZGqZ5d3CHYJTGv7",
      "id" : "58PEgJMZGqZ5d3CHYJTGv7",
      "images" : [ ],
      "name" : "Rosalie",
      "popularity" : 43,
      "type" : "artist",
      "uri" : "spotify:artist:58PEgJMZGqZ5d3CHYJTGv7"
    }, {
      "external_urls" : {
        "spotify" : "https://open.spotify.com/artist/7mMRRncwUBxnuIiOeljOdv"
      },
      "followers" : {
        "href" : null,
        "total" : 1123
      },
      "genres" : [ "neapolitan funk" ],
      "href" : "https://api.spotify.com/v1/artists/7mMRRncwUBxnuIiOeljOdv",
      "id" : "7mMRRncwUBxnuIiOeljOdv",
      "images" : [ {
        "height" : 640,
        "url" : "https://i.scdn.co/image/ab67616d0000b273d1e125098696047e4d4776e1",
        "width" : 640
      }, {
        "height" : 300,
        "url" : "https://i.scdn.co/image/ab67616d00001e02d1e125098696047e4d4776e1",
        "width" : 300
      }, {
        "height" : 64,
        "url" : "https://i.scdn.co/image/ab67616d00004851d1e125098696047e4d4776e1",
        "width" : 64
      } ],
      "name" : "Rosa",
      "popularity" : 17,
      "type" : "artist",
      "uri" : "spotify:artist:7mMRRncwUBxnuIiOeljOdv"
    }, {
      "external_urls" : {
        "spotify" : "https://open.spotify.com/artist/0biqGw8ucOZPbEtZOcmaBg"
      },
      "followers" : {
        "href" : null,
        "total" : 291
      },
      "genres" : [ "lo-fi beats" ],
      "href" : "https://api.spotify.com/v1/artists/0biqGw8ucOZPbEtZOcmaBg",
      "id" : "0biqGw8ucOZPbEtZOcmaBg",
      "images" : [ {
        "height" : 640,
        "url" : "https://i.scdn.co/image/ab6761610000e5ebc8934d3e370db66d0afa5aa5",
        "width" : 640
      }, {
        "height" : 320,
        "url" : "https://i.scdn.co/image/ab67616100005174c8934d3e370db66d0afa5aa5",
        "width" : 320
      }, {
        "height" : 160,
        "url" : "https://i.scdn.co/image/ab6761610000f178c8934d3e370db66d0afa5aa5",
        "width" : 160
      } ],
      "name" : "rosarummet",
      "popularity" : 33,
      "type" : "artist",
      "uri" : "spotify:artist:0biqGw8ucOZPbEtZOcmaBg"
    }, {
      "external_urls" : {
        "spotify" : "https://open.spotify.com/artist/2TgSod6618aoVwSedFAA3Q"
      },
      "followers" : {
        "href" : null,
        "total" : 48
      },
      "genres" : [ ],
      "href" : "https://api.spotify.com/v1/artists/2TgSod6618aoVwSedFAA3Q",
      "id" : "2TgSod6618aoVwSedFAA3Q",
      "images" : [ {
        "height" : 640,
        "url" : "https://i.scdn.co/image/ab6761610000e5eb23002a88815f515e30b1ed4f",
        "width" : 640
      }, {
        "height" : 320,
        "url" : "https://i.scdn.co/image/ab6761610000517423002a88815f515e30b1ed4f",
        "width" : 320
      }, {
        "height" : 160,
        "url" : "https://i.scdn.co/image/ab6761610000f17823002a88815f515e30b1ed4f",
        "width" : 160
      } ],
      "name" : "ROSA",
      "popularity" : 7,
      "type" : "artist",
      "uri" : "spotify:artist:2TgSod6618aoVwSedFAA3Q"
    } ],
    "limit" : 20,
    "next" : "https://api.spotify.com/v1/search?query=rosa&type=artist&offset=20&limit=20",
    "offset" : 0,
    "previous" : null,
    "total" : 37
  }
}